{
    "spec_version": "0.0.7",
    "name": "My App",
    "shortname": "My App",
    "scope": "/",
    "apphome": "/",
    "icon": "/logo192.png",
    "description": "Simple Example",
    "chains": [
      {
        "chainId": "cf057bbfb72640471fd910bcb67639c22df9f92470936cddc1ade0e2f2e7dc4f",
        "chainName": "Testnet",
        "icon": "/logo192.png"
      }
    ]
  }